Titanic two-stage survival policy forecast
…
(Dispersion parameter for binomial family taken to be 1)

    Null deviance: 116.606  on 177  degrees of freedom
Residual deviance:  84.844  on 154  degrees of freedom
AIC: 132.84

Number of Fisher Scoring iterations: 18

Code

# Compare importance still present
vi_b <- vip::vi(glm_b)
vi_b

# A tibble: 23 × 3
   Variable         Importance Sign 
   <chr>                 <dbl> <chr>
 1 Pclass3             1.57    NEG  
 2 Sexmale             1.04    NEG  
 3 Pclass2             0.809   NEG  
 4 I(SibSp + Parch)    0.557   POS  
 5 Sexmale:Age         0.238   NEG  
 6 Age                 0.108   NEG  
 7 TicketGroupPC       0.00486 NEG  
 8 TicketGroupNUM      0.00465 NEG  
 9 DeckG               0.00295 NEG  
10 DeckC               0.00261 NEG  
# ℹ 13 more rows
…
